…
```r
# Had an arrival delay of two or more hours (> 120 minutes)
flights %>% 
  filter(arr_delay>=120)
```

```
## # A tibble: 10,200 × 19
##     year month   day dep_time sched_dep_time dep_delay arr_time sched_arr_time
##    <int> <int> <int>    <int>          <int>     <dbl>    <int>          <int>
##  1  2013     1     1      811            630       101     1047            830
##  2  2013     1     1      848           1835       853     1001           1950
##  3  2013     1     1      957            733       144     1056            853
##  4  2013     1     1     1114            900       134     1447           1222
##  5  2013     1     1     1505           1310       115     1638           1431
##  6  2013     1     1     1525           1340       105     1831           1626
##  7  2013     1     1     1549           1445        64     1912           1656
##  8  2013     1     1     1558           1359       119     1718           1515
##  9  2013     1     1     1732           1630        62     2028           1825
## 10  2013     1     1     1803           1620       103     2008           1750
## # ℹ 10,190 more rows
## # ℹ 11 more variables: arr_delay <dbl>, carrier <chr>, flight <int>,
## #   tailnum <chr>, origin <chr>, dest <chr>, air_time <dbl>, distance <dbl>,
## #   hour <dbl>, minute <dbl>, time_hour <dttm>
```

```r
# Flew to Houston (IAH or HOU)
flights %>% 
  filter(dest == "IAH" | dest == "HOU")
```

```
## # A tibble: 9,313 × 19
##     year month   day dep_time sched_dep_time dep_delay arr_time sched_arr_time
##    <int> <int> <int>    <int>          <int>     <dbl>    <int>          <int>
##  1  2013     1     1      517            515         2      830            819
##  2  2013     1     1      533            529         4      850            830
##  3  2013     1     1      623            627        -4      933            932
##  4  2013     1     1      728            732        -4     1041           1038
##  5  2013     1     1      739            739         0     1104           1038
##  6  2013     1     1      908            908         0     1228           1219
##  7  2013     1     1     1028           1026         2     1350           1339
##  8  2013     1     1     1044           1045        -1     1352           1351
##  9  2013     1     1     1114            900       134     1447           1222
## 10  2013     1     1     1205           1200         5     1503           1505
## # ℹ 9,303 more rows
## # ℹ 11 more variables: arr_delay <dbl>, carrier <chr>, flight <int>,
## #   tailnum <chr>, origin <chr>, dest <chr>, air_time <dbl>, distance <dbl>,
## #   hour <dbl>, minute <dbl>, time_hour <dttm>
```

```r
# Were operated by United (`UA`), American (`AA`), or Delta (`DL`)
flights %>% 
  filter(carrier %in% c("UA","AA","DL"))
```

```
## # A tibble: 139,504 × 19
##     year month   day dep_time sched_dep_time dep_delay arr_time sched_arr_time
##    <int> <int> <int>    <int>          <int>     <dbl>    <int>          <int>
##  1  2013     1     1      517            515         2      830            819
##  2  2013     1     1      533            529         4      850            830
##  3  2013     1     1      542            540         2      923            850
##  4  2013     1     1      554            600        -6      812            837
##  5  2013     1     1      554            558        -4      740            728
##  6  2013     1     1      558            600        -2      753            745
##  7  2013     1     1      558            600        -2      924            917
##  8  2013     1     1      558            600        -2      923            937
##  9  2013     1     1      559            600        -1      941            910
## 10  2013     1     1      559            600        -1      854            902
## # ℹ 139,494 more rows
## # ℹ 11 more variables: arr_delay <dbl>, carrier <chr>, flight <int>,
## #   tailnum <chr>, origin <chr>, dest <chr>, air_time <dbl>, distance <dbl>,
## #   hour <dbl>, minute <dbl>, time_hour <dttm>
```

```r
# Departed in summer (July, August, and September)
flights %>% 
  filter(month %in% c("7","8","9"))   
```

```
## # A tibble: 86,326 × 19
##     year month   day dep_time sched_dep_time dep_delay arr_time sched_arr_time
##    <int> <int> <int>    <int>          <int>     <dbl>    <int>          <int>
##  1  2013     7     1        1           2029       212      236           2359
##  2  2013     7     1        2           2359         3      344            344
##  3  2013     7     1       29           2245       104      151              1
##  4  2013     7     1       43           2130       193      322             14
##  5  2013     7     1       44           2150       174      300            100
##  6  2013     7     1       46           2051       235      304           2358
##  7  2013     7     1       48           2001       287      308           2305
##  8  2013     7     1       58           2155       183      335             43
##  9  2013     7     1      100           2146       194      327             30
## 10  2013     7     1      100           2245       135      337            135
## # ℹ 86,316 more rows
## # ℹ 11 more variables: arr_delay <dbl>, carrier <chr>, flight <int>,
## #   tailnum <chr>, origin <chr>, dest <chr>, air_time <dbl>, distance <dbl>,
## #   hour <dbl>, minute <dbl>, time_hour <dttm>
```

```r
# Arrived more than two hours late, but didn't leave late
flights %>% 
  filter(arr_delay>120 & dep_delay<=0) 
```

```
## # A tibble: 29 × 19
##     year month   day dep_time sched_dep_time dep_delay arr_time sched_arr_time
##    <int> <int> <int>    <int>          <int>     <dbl>    <int>          <int>
##  1  2013     1    27     1419           1420        -1     1754           1550
##  2  2013    10     7     1350           1350         0     1736           1526
##  3  2013    10     7     1357           1359        -2     1858           1654
##  4  2013    10    16      657            700        -3     1258           1056
##  5  2013    11     1      658            700        -2     1329           1015
##  6  2013     3    18     1844           1847        -3       39           2219
##  7  2013     4    17     1635           1640        -5     2049           1845
##  8  2013     4    18      558            600        -2     1149            850
##  9  2013     4    18      655            700        -5     1213            950
## 10  2013     5    22     1827           1830        -3     2217           2010
## # ℹ 19 more rows
## # ℹ 11 more variables: arr_delay <dbl>, carrier <chr>, flight <int>,
## #   tailnum <chr>, origin <chr>, dest <chr>, air_time <dbl>, distance <dbl>,
## #   hour <dbl>, minute <dbl>, time_hour <dttm>
```

```r
# Were delayed by at least an hour, but made up over 30 minutes in flight
flights %>% 
  filter(dep_delay>=60 & dep_delay-arr_delay>30) 
```

```
## # A tibble: 1,844 × 19
##     year month   day dep_time sched_dep_time dep_delay arr_time sched_arr_time
##    <int> <int> <int>    <int>          <int>     <dbl>    <int>          <int>
##  1  2013     1     1     2205           1720       285       46           2040
##  2  2013     1     1     2326           2130       116      131             18
##  3  2013     1     3     1503           1221       162     1803           1555
##  4  2013     1     3     1839           1700        99     2056           1950
##  5  2013     1     3     1850           1745        65     2148           2120
##  6  2013     1     3     1941           1759       102     2246           2139
##  7  2013     1     3     1950           1845        65     2228           2227
##  8  2013     1     3     2015           1915        60     2135           2111
##  9  2013     1     3     2257           2000       177       45           2224
## 10  2013     1     4     1917           1700       137     2135           1950
## # ℹ 1,834 more rows
## # ℹ 11 more variables: arr_delay <dbl>, carrier <chr>, flight <int>,
## #   tailnum <chr>, origin <chr>, dest <chr>, air_time <dbl>, distance <dbl>,
## #   hour <dbl>, minute <dbl>, time_hour <dttm>
```
…
  #ANS: Plane N725MQ travelled the most time from NYC in 2013
  
  #Find plane with the greatest number of flights and that had more than 50 seats
  top_flights %>% 
  filter(seats > 50) %>% 
  arrange(desc(total_flights))
```

```
## # A tibble: 3,200 × 10
##    tailnum total_flights  year type       manufacturer model engines seats speed
##    <chr>           <int> <int> <chr>      <chr>        <chr>   <int> <int> <int>
##  1 N328AA            393  1986 Fixed win… BOEING       767-…       2   255    NA
##  2 N338AA            388  1987 Fixed win… BOEING       767-…       2   255    NA
##  3 N327AA            387  1986 Fixed win… BOEING       767-…       2   255    NA
##  4 N335AA            385  1987 Fixed win… BOEING       767-…       2   255    NA
##  5 N323AA            357  1986 Fixed win… BOEING       767-…       2   255    NA
##  6 N319AA            354  1985 Fixed win… BOEING       767-…       2   255    NA
##  7 N336AA            353  1987 Fixed win… BOEING       767-…       2   255    NA
##  8 N329AA            344  1987 Fixed win… BOEING       767-…       2   255    NA
##  9 N789JB            332  2011 Fixed win… AIRBUS       A320…       2   200    NA
## 10 N324AA            328  1986 Fixed win… BOEING       767-…       2   255    NA
## # ℹ 3,190 more rows
## # ℹ 1 more variable: engine <chr>
```
…
```r
  #ANS: 70 planes
  
#Q:What are the five most common manufacturers?
planes %>% 
  group_by(manufacturer) %>% 
  summarise(count=n()) %>% 
  arrange(desc(count))
```

```
## # A tibble: 35 × 2
##    manufacturer                  count
##    <chr>                         <int>
##  1 BOEING                         1630
##  2 AIRBUS INDUSTRIE                400
##  3 BOMBARDIER INC                  368
##  4 AIRBUS                          336
##  5 EMBRAER                         299
##  6 MCDONNELL DOUGLAS               120
##  7 MCDONNELL DOUGLAS AIRCRAFT CO   103
##  8 MCDONNELL DOUGLAS CORPORATION    14
##  9 CANADAIR                          9
## 10 CESSNA                            9
## # ℹ 25 more rows
```
```r
  #ANS: 
 #1 BOEING                         1630
 #2 AIRBUS INDUSTRIE                400
 #3 BOMBARDIER INC                  368
 #4 AIRBUS                          336
 #5 EMBRAER                         299
  
#Q:Has the distribution of manufacturer changed over time as reflected by the airplanes flying from NYC in 2013?
flights %>% 
  filter(origin %in% c("JFK","EWR","LGA") & year ==2013)
```

```
## # A tibble: 336,776 × 19
##     year month   day dep_time sched_dep_time dep_delay arr_time sched_arr_time
##    <int> <int> <int>    <int>          <int>     <dbl>    <int>          <int>
##  1  2013     1     1      517            515         2      830            819
##  2  2013     1     1      533            529         4      850            830
##  3  2013     1     1      542            540         2      923            850
##  4  2013     1     1      544            545        -1     1004           1022
##  5  2013     1     1      554            600        -6      812            837
##  6  2013     1     1      554            558        -4      740            728
##  7  2013     1     1      555            600        -5      913            854
##  8  2013     1     1      557            600        -3      709            723
##  9  2013     1     1      557            600        -3      838            846
## 10  2013     1     1      558            600        -2      753            745
## # ℹ 336,766 more rows
## # ℹ 11 more variables: arr_delay <dbl>, carrier <chr>, flight <int>,
## #   tailnum <chr>, origin <chr>, dest <chr>, air_time <dbl>, distance <dbl>,
## #   hour <dbl>, minute <dbl>, time_hour <dttm>
```
…
```         
-   What is the median arrival delay on a month-by-month basis in each airport?
-   For each airline, plot the median arrival delay for each month and origin airport.
```


```r
#Q:What is the median arrival delay on a month-by-month basis in each airport?
flights %>% 
  group_by(month,dest) %>% 
  summarise(median_arr_delay=median(arr_delay,na.rm=TRUE)) 
```

```
## # A tibble: 1,113 × 3
## # Groups:   month [12]
##    month dest  median_arr_delay
##    <int> <chr>            <dbl>
##  1     1 ALB                6  
##  2     1 ATL               -2  
##  3     1 AUS               -2  
##  4     1 AVL               23.5
##  5     1 BDL              -10  
##  6     1 BHM              -11  
##  7     1 BNA                1  
##  8     1 BOS              -10  
##  9     1 BQN               -5  
## 10     1 BTV               -6  
## # ℹ 1,103 more rows
```
…
<img src="/blogs/HW 2_files/figure-html/unnamed-chunk-12-1.png" width="648" style="display: block; margin: auto;" />

```r
#What's the 'typical' `age_difference` in movies?
age_gaps %>% 
  group_by(age_difference) %>% 
  summarise(count = n()) %>% 
  arrange(desc(count))
```

```
## # A tibble: 46 × 2
##    age_difference count
##             <dbl> <int>
##  1              2    85
##  2              3    85
##  3              1    77
##  4              5    71
##  5              7    71
##  6              4    66
##  7              8    59
##  8              9    52
##  9             11    51
## 10              6    50
## # ℹ 36 more rows
```
…
```r
#Which actors/ actresses have the greatest number of love interests in this dataset?
age_gaps %>% 
    group_by(actor_1_name) %>% 
    summarise(num = n_distinct(couple_number)) %>%
    arrange(desc(num))
```

```
## # A tibble: 567 × 2
##    actor_1_name      num
##    <chr>           <int>
##  1 Pierce Brosnan      4
##  2 Roger Moore         4
##  3 Bradley Cooper      3
##  4 Christian Bale      3
##  5 Colin Firth         3
##  6 Dermot Mulroney     3
##  7 Heath Ledger        3
##  8 Jesse Eisenberg     3
##  9 John Cusack         3
## 10 Julia Roberts       3
## # ℹ 557 more rows
```

```r
age_gaps %>% 
    group_by(actor_2_name) %>% 
    summarise(num = n_distinct(couple_number)) %>%
    arrange(desc(num))
```

```
## # A tibble: 647 × 2
##    actor_2_name           num
##    <chr>                <int>
##  1 Diane Keaton             4
##  2 Keira Knightley          4
##  3 Ali Wong                 3
##  4 Amy Adams                3
##  5 Angelina Jolie           3
##  6 Annette Bening           3
##  7 Blake Lively             3
##  8 Cameron Diaz             3
##  9 Cate Blanchett           3
## 10 Helena Bonham Carter     3
## # ℹ 637 more rows
```
…
